"peer","https://platyca.gitlab.io/platyca/platyca/"
"entry","https://platyca.tk/boards/messages/","Hi, I'm Yumi."
"entry","https://platyca.tk/boards/messages/","https://gitlab.com/hakaba-novels/sekiran"
